0.000000000000000000e+00
-3.249564418669435573e-01
-2.874844499773996365e-01
-2.882754085076967843e-01
-2.883383899477743872e-01
-3.159315946240565665e-01
-3.165012766010644185e-01
-3.355003631637625827e-01
-3.456603054374944861e-01
-3.923480235795485105e-01
